Identifying paths in complex DAGs
…
my_paths <- tibble::tibble(
path = paths(yoshida_dag, Z= list("M1","M2"))$paths,
Open = paths(yoshida_dag, Z= list("M1","M2"))$open
)

I identified the paths successfully. Now, I need to explain this statement in Yoshida’s paper: “To control for M1 and M2 to obtain the controlled direct effect of A, we need to account for the confounders of these variables, namely L1 and L2. However, these L1 and L2 are post-treatment confounding variables that may partly mediate the effect of A outside M1 and M2”

my_paths |> 
  filter(Open == T) |> 
  filter(str_detect(path, "M1|M2"))

# A tibble: 26 × 2
   path                                 Open 
   <chr>                                <lgl>
 1 A -> L1 -> M1 <- L0 -> L2 -> Y       TRUE 
 2 A -> L1 -> M1 <- L0 -> M2 <- L2 -> Y TRUE 
 3 A -> L1 -> M1 <- L0 -> Y             TRUE 
 4 A -> L1 <- L0 -> M2 <- L2 -> Y       TRUE 
 5 A -> L2 -> M2 <- L0 -> L1 -> Y       TRUE 
 6 A -> L2 -> M2 <- L0 -> M1 <- L1 -> Y TRUE 
 7 A -> L2 -> M2 <- L0 -> Y             TRUE 
 8 A -> L2 <- L0 -> M1 <- L1 -> Y       TRUE 
 9 A -> M1 <- L0 -> L1 -> Y             TRUE 
10 A -> M1 <- L0 -> L2 -> Y             TRUE 
# ℹ 16 more rows
…
